module gitlab.com/hof4eg/auth_client

go 1.19

require (
	github.com/cadyrov/goerr v1.0.12
	github.com/stretchr/testify v1.8.2
)

require (
	github.com/davecgh/go-spew v1.1.1 // indirect
	github.com/pmezard/go-difflib v1.0.0 // indirect
	gopkg.in/yaml.v3 v3.0.1 // indirect
)
